2716
0	1069.750000	0	14
1	970.403015	0	14
2	1140.089966	0	14
3	1064.569946	0	14
4	1145.060059	0	14
5	1098.479980	0	14
6	1219.819946	0	14
7	1188.589966	0	14
8	1179.109985	0	14
9	1162.369995	0	14
10	1129.619995	0	14
11	1090.050049	0	14
12	1166.540039	0	14
13	1133.760010	0	14
14	1151.800049	0	14
15	1132.250000	0	14
16	1169.869995	0	14
17	1148.089966	0	14
18	1128.270020	0	14
19	1129.530029	0	14
20	1148.250000	0	14
21	1232.550049	0	14
22	1199.589966	0	14
23	1163.189941	0	14
24	1133.270020	0	14
25	1107.449951	0	14
26	1097.969971	0	14
27	1017.900024	0	14
28	1023.419983	0	14
29	1144.599976	0	14
30	1151.400024	0	14
31	1025.260010	0	14
32	1137.410034	0	14
33	1170.209961	0	14
34	1167.420044	0	14
35	1119.819946	0	14
36	1139.109985	0	14
37	1176.079956	0	14
38	1209.760010	0	14
39	1103.900024	0	14
40	1140.050049	0	14
41	1115.989990	0	14
42	1128.339966	0	14
43	1160.859985	0	14
44	1153.469971	0	14
45	1055.439941	0	14
46	1137.260010	0	14
47	1140.180054	0	14
48	1004.369995	0	14
49	1157.329956	0	14
50	1117.099976	0	14
51	1155.810059	0	14
52	993.906982	0	14
53	761.479980	0	14
54	1125.890015	0	14
55	1158.420044	0	14
56	1153.310059	0	14
57	1148.859985	0	14
58	1154.109985	0	14
59	1121.689941	0	14
60	1146.319946	0	14
61	1135.630005	0	14
62	1115.229980	0	14
63	1133.709961	0	14
64	1117.109985	0	14
65	1198.560059	0	14
66	1160.390015	0	14
67	1170.099976	0	14
68	1126.079956	0	14
69	1165.319946	0	14
70	1180.140015	0	14
71	1110.349976	0	14
72	844.788025	0	14
73	1163.280029	0	14
74	1147.400024	0	14
75	1085.770020	0	14
76	1065.699951	0	14
77	1089.040039	0	14
78	1148.579956	0	14
79	1141.560059	0	14
80	1103.459961	0	14
81	1113.170044	0	14
82	1149.229980	0	14
83	1082.939941	0	14
84	1133.540039	0	14
85	1146.189941	0	14
86	1156.849976	0	14
87	1138.930054	0	14
88	1112.349976	0	14
89	1145.579956	0	14
90	1064.369995	0	14
91	1029.939941	0	14
92	991.565979	0	14
93	1149.680054	0	14
94	1127.510010	0	14
95	1064.099976	0	14
96	1036.810059	0	14
97	1125.339966	0	14
98	1142.810059	0	14
99	1147.770020	0	14
100	1159.300049	0	14
101	1149.739990	0	14
102	1167.180054	0	14
103	1144.579956	0	14
104	1178.140015	0	14
105	1152.410034	0	14
106	1127.479980	0	14
107	1154.510010	0	14
108	1161.310059	0	14
109	1093.520020	0	14
110	954.541016	0	14
111	1134.619995	0	14
112	1165.609985	0	14
113	1153.390015	0	14
114	1096.560059	0	14
115	1157.369995	0	14
116	1128.770020	0	14
117	1150.410034	0	14
118	1176.540039	0	14
119	1155.020020	0	14
120	1141.130005	0	14
121	1132.510010	0	14
122	1138.150024	0	14
123	1130.380005	0	14
124	1081.709961	0	14
125	1121.829956	0	14
126	1170.530029	0	14
127	1066.760010	0	14
128	1117.489990	0	14
129	1113.420044	0	14
130	1140.479980	0	14
131	1160.829956	0	14
132	1116.660034	0	14
133	1153.109985	0	14
134	1187.050049	0	14
135	1144.750000	0	14
136	1129.380005	0	14
137	1127.849976	0	14
138	1101.459961	0	14
139	938.101013	0	14
140	1169.130005	0	14
141	1187.439941	0	14
142	1129.400024	0	14
143	1200.790039	0	14
144	1047.939941	0	14
145	1143.670044	0	14
146	1140.239990	0	14
147	1138.660034	0	14
148	1140.380005	0	14
149	1141.640015	0	14
150	1151.390015	0	14
151	1131.089966	0	14
152	1078.209961	0	14
153	1148.969971	0	14
154	1089.060059	0	14
155	1154.859985	0	14
156	1142.079956	0	14
157	1220.430054	0	14
158	1113.069946	0	14
159	1138.469971	0	14
160	1183.069946	0	14
161	1147.569946	0	14
162	1101.900024	0	14
163	1144.329956	0	14
164	1158.030029	0	14
165	1149.229980	0	14
166	1167.140015	0	14
167	1051.140015	0	14
168	1161.930054	0	14
169	1171.410034	0	14
170	1130.910034	0	14
171	1154.469971	0	14
172	1097.560059	0	14
173	1146.790039	0	14
174	1136.859985	0	14
175	1124.400024	0	14
176	1161.449951	0	14
177	1158.140015	0	14
178	1142.359985	0	14
179	1126.869995	0	14
180	1135.469971	0	14
181	1161.750000	0	14
182	1157.949951	0	14
183	1067.119995	0	14
184	1126.239990	0	14
185	1146.800049	0	14
186	1173.229980	0	14
187	1116.790039	0	14
188	1170.680054	0	14
189	1108.719971	0	14
190	1041.930054	0	14
191	787.598999	0	14
192	1093.349976	0	14
193	1121.750000	0	14
194	1145.810059	0	14
195	1132.069946	0	14
196	1156.219971	0	14
197	1137.550049	0	14
198	1158.949951	0	14
199	1162.770020	0	14
200	1146.209961	0	14
201	1149.209961	0	14
202	1150.530029	0	14
203	1166.959961	0	14
204	1156.260010	0	14
205	1171.439941	0	14
206	1117.380005	0	14
207	1117.050049	0	14
208	1165.420044	0	14
209	1142.079956	0	14
210	1157.630005	0	14
211	1154.770020	0	14
212	1146.109985	0	14
213	1148.709961	0	14
214	1158.800049	0	14
215	1118.750000	0	14
216	1166.109985	0	14
217	1115.939941	0	14
218	1154.369995	0	14
219	1097.959961	0	14
220	1127.000000	0	14
221	1131.329956	0	14
222	1125.699951	0	14
223	1162.599976	0	14
224	1111.959961	0	14
225	1158.680054	0	14
226	1161.079956	0	14
227	1165.920044	0	14
228	1172.880005	0	14
229	1165.209961	0	14
230	1161.329956	0	14
231	1078.900024	0	14
232	1103.020020	0	14
233	1132.810059	0	14
234	1136.880005	0	14
235	1145.180054	0	14
236	1162.660034	0	14
237	1173.109985	0	14
238	1140.780029	0	14
239	1091.469971	0	14
240	1083.189941	0	14
241	1134.400024	0	14
242	1146.579956	0	14
243	1150.819946	0	14
244	1142.180054	0	14
245	1212.109985	0	14
246	1151.030029	0	14
247	1195.969971	0	14
248	1170.900024	0	14
249	1149.640015	0	14
250	1103.719971	0	14
251	1144.469971	0	14
252	1135.819946	0	14
253	1160.760010	0	14
254	1087.079956	0	14
255	1123.300049	0	14
256	1166.199951	0	14
257	1139.319946	0	14
258	1196.319946	0	14
259	1173.719971	0	14
260	1157.209961	0	14
261	1153.219971	0	14
262	1131.329956	0	14
263	1163.189941	0	14
264	1181.479980	0	14
265	1136.069946	0	14
266	1032.900024	0	14
267	1123.400024	0	14
268	1114.969971	0	14
269	1142.160034	0	14
270	1036.140015	0	14
271	1144.219971	0	14
272	1165.280029	0	14
273	1154.630005	0	14
274	1167.050049	0	14
275	1154.449951	0	14
276	1138.489990	0	14
277	1143.270020	0	14
278	1156.660034	0	14
279	1160.770020	0	14
280	1120.079956	0	14
281	1162.319946	0	14
282	942.781006	0	14
283	790.153015	0	14
284	1188.160034	0	14
285	1067.140015	0	14
286	1118.550049	0	14
287	1167.489990	0	14
288	1151.520020	0	14
289	1087.199951	0	14
290	1137.010010	0	14
291	1139.750000	0	14
292	1161.239990	0	14
293	1159.099976	0	14
294	1136.500000	0	14
295	1127.680054	0	14
296	1147.890015	0	14
297	1200.069946	0	14
298	1161.680054	0	14
299	1141.770020	0	14
300	988.919006	0	14
301	1175.750000	0	14
302	1184.760010	0	14
303	842.728027	0	14
304	1124.959961	0	14
305	1162.599976	0	14
306	1175.069946	0	14
307	1153.790039	0	14
308	1119.400024	0	14
309	1134.209961	0	14
310	1138.630005	0	14
311	1161.819946	0	14
312	1154.040039	0	14
313	1179.310059	0	14
314	1090.459961	0	14
315	1139.500000	0	14
316	1161.920044	0	14
317	1086.479980	0	14
318	1127.069946	0	14
319	1026.540039	0	14
320	1137.910034	0	14
321	1134.119995	0	14
322	1169.390015	0	14
323	1090.839966	0	14
324	1155.109985	0	14
325	1158.390015	0	14
326	1103.000000	0	14
327	1097.550049	0	14
328	1092.729980	0	14
329	1121.920044	0	14
330	1119.040039	0	14
331	1143.189941	0	14
332	1165.560059	0	14
333	1050.689941	0	14
334	1136.839966	0	14
335	1164.849976	0	14
336	994.103027	0	14
337	1111.969971	0	14
338	1124.160034	0	14
339	1137.189941	0	14
340	1167.270020	0	14
341	1160.670044	0	14
342	1154.650024	0	14
343	1193.359985	0	14
344	1178.689941	0	14
345	1129.040039	0	14
346	1146.569946	0	14
347	1149.250000	0	14
348	1109.199951	0	14
349	1149.630005	0	14
350	1136.410034	0	14
351	1173.310059	0	14
352	1168.579956	0	14
353	1157.310059	0	14
354	1185.750000	0	14
355	1150.829956	0	14
356	1113.339966	0	14
357	1127.170044	0	14
358	1111.670044	0	14
359	1151.449951	0	14
360	1148.010010	0	14
361	1165.839966	0	14
362	1134.359985	0	14
363	1178.709961	0	14
364	1126.140015	0	14
365	1164.609985	0	14
366	998.385986	0	14
367	1115.920044	0	14
368	1144.339966	0	14
369	1126.989990	0	14
370	1145.640015	0	14
371	1135.910034	0	14
372	1132.719971	0	14
373	1173.579956	0	14
374	1129.770020	0	14
375	1171.199951	0	14
376	1152.369995	0	14
377	1158.280029	0	14
378	950.669983	0	14
379	1138.670044	0	14
380	1154.010010	0	14
381	1142.150024	0	14
382	1101.729980	0	14
383	884.994019	0	14
384	1145.530029	0	14
385	1180.020020	0	14
386	1192.410034	0	14
387	1264.839966	0	14
388	1183.729980	0	14
389	1133.569946	0	14
390	1110.459961	0	14
391	1100.729980	0	14
392	1165.550049	0	14
393	1193.790039	0	14
394	1150.729980	0	14
395	1221.520020	0	14
396	1121.520020	0	14
397	1156.989990	0	14
398	1064.119995	0	14
399	1120.729980	0	14
400	1168.689941	0	14
401	1133.619995	0	14
402	1165.869995	0	14
403	1130.810059	0	14
404	1073.849976	0	14
405	1168.150024	0	14
406	1153.489990	0	14
407	1144.739990	0	14
408	1157.609985	0	14
409	1128.270020	0	14
410	1156.780029	0	14
411	861.809998	0	14
412	1141.949951	0	14
413	1125.300049	0	14
414	1086.699951	0	14
415	1122.310059	0	14
416	1181.199951	0	14
417	1150.630005	0	14
418	1140.890015	0	14
419	1121.119995	0	14
420	1149.400024	0	14
421	1152.589966	0	14
422	1167.560059	0	14
423	1187.689941	0	14
424	1127.079956	0	14
425	1152.930054	0	14
426	1137.660034	0	14
427	1121.750000	0	14
428	1156.229980	0	14
429	919.546997	0	14
430	1132.530029	0	14
431	1132.290039	0	14
432	1062.339966	0	14
433	1158.020020	0	14
434	1087.680054	0	14
435	1196.160034	0	14
436	1133.790039	0	14
437	1148.300049	0	14
438	1160.550049	0	14
439	1157.359985	0	14
440	1193.780029	0	14
441	1194.290039	0	14
442	1219.229980	0	14
443	1205.939941	0	14
444	1126.770020	0	14
445	938.880981	0	14
446	1157.030029	0	14
447	1122.050049	0	14
448	1142.910034	0	14
449	1129.109985	0	14
450	1126.540039	0	14
451	1135.300049	0	14
452	1148.699951	0	14
453	1124.829956	0	14
454	1177.280029	0	14
455	1123.189941	0	14
456	1067.689941	0	14
457	1102.739990	0	14
458	1118.920044	0	14
459	1023.890015	0	14
460	1022.570007	0	14
461	615.031982	0	14
462	1158.189941	0	14
463	1158.550049	0	14
464	1127.420044	0	14
465	1164.380005	0	14
466	1116.359985	0	14
467	1146.859985	0	14
468	1191.099976	0	14
469	1139.319946	0	14
470	1128.420044	0	14
471	1158.089966	0	14
472	1178.250000	0	14
473	1128.410034	0	14
474	1104.040039	0	14
475	1102.040039	0	14
476	1134.369995	0	14
477	1159.839966	0	14
478	1146.170044	0	14
479	1144.540039	0	14
480	1150.510010	0	14
481	1136.699951	0	14
482	1126.319946	0	14
483	1110.079956	0	14
484	1131.760010	0	14
485	1146.000000	0	14
486	1183.729980	0	14
487	1103.380005	0	14
488	1158.130005	0	14
489	1130.060059	0	14
490	1177.130005	0	14
491	1219.680054	0	14
492	1110.800049	0	14
493	1151.709961	0	14
494	1126.250000	0	14
495	1144.239990	0	14
496	1151.280029	0	14
497	1149.260010	0	14
498	1155.800049	0	14
499	1118.949951	0	14
500	1148.489990	0	14
501	1177.349976	0	14
502	1147.689941	0	14
503	1128.439941	0	14
504	1144.709961	0	14
505	1165.900024	0	14
506	1128.910034	0	14
507	1110.790039	0	14
508	1124.609985	0	14
509	1169.380005	0	14
510	1143.410034	0	14
511	1126.280029	0	14
512	1144.390015	0	14
513	1148.719971	0	14
514	1124.530029	0	14
515	1189.150024	0	14
516	1154.420044	0	14
517	1165.839966	0	14
518	1191.189941	0	14
519	1151.890015	0	14
520	1170.969971	0	14
521	1137.310059	0	14
522	1116.130005	0	14
523	1128.560059	0	14
524	1119.130005	0	14
525	1171.369995	0	14
526	1139.119995	0	14
527	1116.150024	0	14
528	1145.239990	0	14
529	1137.369995	0	14
530	966.655029	0	14
531	1141.290039	0	14
532	1135.010010	0	14
533	1161.869995	0	14
534	1156.229980	0	14
535	1142.359985	0	14
536	1099.050049	0	14
537	1176.719971	0	14
538	1168.479980	0	14
539	1071.030029	0	14
540	1129.750000	0	14
541	1122.849976	0	14
542	1138.380005	0	14
543	1161.670044	0	14
544	1158.270020	0	14
545	1138.430054	0	14
546	1148.949951	0	14
547	1155.199951	0	14
548	1146.609985	0	14
549	1116.660034	0	14
550	1158.599976	0	14
551	1128.430054	0	14
552	1198.050049	0	14
553	1146.359985	0	14
554	1167.060059	0	14
555	1156.910034	0	14
556	1120.949951	0	14
557	1140.859985	0	14
558	1165.500000	0	14
559	1097.660034	0	14
560	1147.500000	0	14
561	1111.670044	0	14
562	1175.280029	0	14
563	1153.280029	0	14
564	1121.660034	0	14
565	1163.160034	0	14
566	1178.540039	0	14
567	1176.709961	0	14
568	1226.229980	0	14
569	1138.839966	0	14
570	1156.239990	0	14
571	1077.199951	0	14
572	1106.449951	0	14
573	1065.989990	0	14
574	1140.660034	0	14
575	1109.400024	0	14
576	1148.030029	0	14
577	1133.410034	0	14
578	1180.030029	0	14
579	1152.199951	0	14
580	1173.400024	0	14
581	1154.040039	0	14
582	1125.640015	0	14
583	1153.349976	0	14
584	1173.079956	0	14
585	1217.469971	0	14
586	1222.310059	0	14
587	1218.339966	0	14
588	1129.479980	0	14
589	1132.829956	0	14
590	1317.250000	0	14
591	833.778992	0	14
592	1118.510010	0	14
593	1127.209961	0	14
594	1166.160034	0	14
595	1180.869995	0	14
596	1139.329956	0	14
597	1106.530029	0	14
598	1138.030029	0	14
599	1124.660034	0	14
600	1150.040039	0	14
601	1131.459961	0	14
602	1102.400024	0	14
603	1138.780029	0	14
604	1159.640015	0	14
605	1134.530029	0	14
606	1144.569946	0	14
607	1093.890015	0	14
608	1132.959961	0	14
609	1169.199951	0	14
610	1158.969971	0	14
611	1133.400024	0	14
612	1140.849976	0	14
613	1141.439941	0	14
614	1129.849976	0	14
615	1166.479980	0	14
616	1157.069946	0	14
617	1130.670044	0	14
618	1136.599976	0	14
619	1162.430054	0	14
620	1151.510010	0	14
621	1160.270020	0	14
622	1161.199951	0	14
623	1012.330017	0	14
624	1117.199951	0	14
625	1143.939941	0	14
626	1047.689941	0	14
627	716.939026	0	14
628	1195.920044	0	14
629	1172.500000	0	14
630	1131.650024	0	14
631	1180.969971	0	14
632	1102.449951	0	14
633	1144.619995	0	14
634	1166.569946	0	14
635	1175.420044	0	14
636	1139.939941	0	14
637	1130.010010	0	14
638	1119.780029	0	14
639	997.940979	0	14
640	1131.670044	0	14
641	1137.949951	0	14
642	1148.709961	0	14
643	1109.069946	0	14
644	1125.880005	0	14
645	1123.260010	0	14
646	1137.380005	0	14
647	1162.099976	0	14
648	1137.859985	0	14
649	1116.660034	0	14
650	1160.040039	0	14
651	1100.500000	0	14
652	1126.150024	0	14
653	1116.209961	0	14
654	1135.510010	0	14
655	1075.530029	0	14
656	1172.589966	0	14
657	1156.400024	0	14
658	1131.579956	0	14
659	1145.839966	0	14
660	1150.520020	0	14
661	1155.099976	0	14
662	1005.890015	0	14
663	1170.719971	0	14
664	1144.910034	0	14
665	1155.689941	0	14
666	1188.510010	0	14
667	1117.270020	0	14
668	1115.359985	0	14
669	1145.410034	0	14
670	1150.430054	0	14
671	1137.689941	0	14
672	1157.119995	0	14
673	1118.650024	0	14
674	1096.920044	0	14
675	1144.599976	0	14
676	1136.540039	0	14
677	1089.829956	0	14
678	1113.699951	0	14
679	1087.739990	0	14
680	1143.180054	0	14
681	1146.699951	0	14
682	1130.369995	0	14
683	1235.910034	0	14
684	1127.400024	0	14
685	1129.459961	0	14
686	1166.270020	0	14
687	1139.500000	0	14
688	1153.300049	0	14
689	1095.079956	0	14
690	1111.849976	0	14
691	1161.089966	0	14
692	1143.500000	0	14
693	1160.439941	0	14
694	1092.300049	0	14
695	1040.849976	0	14
696	1145.209961	0	14
697	1082.430054	0	14
698	1108.479980	0	14
699	1117.750000	0	14
700	1162.079956	0	14
701	1136.579956	0	14
702	1132.479980	0	14
703	1113.839966	0	14
704	1119.329956	0	14
705	1156.339966	0	14
706	1140.709961	0	14
707	1147.989990	0	14
708	1173.060059	0	14
709	1162.109985	0	14
710	1177.459961	0	14
711	1128.239990	0	14
712	1170.209961	0	14
713	1126.839966	0	14
714	1142.140015	0	14
715	1135.229980	0	14
716	1122.780029	0	14
717	1160.410034	0	14
718	1118.859985	0	14
719	1122.680054	0	14
720	1121.750000	0	14
721	1143.780029	0	14
722	1144.160034	0	14
723	1165.920044	0	14
724	1111.650024	0	14
725	1100.780029	0	14
726	1160.369995	0	14
727	1146.060059	0	14
728	1131.589966	0	14
729	1146.890015	0	14
730	1171.430054	0	14
731	1157.800049	0	14
732	995.481995	0	14
733	1136.430054	0	14
734	1150.040039	0	14
735	1171.420044	0	14
736	1122.810059	0	14
737	1151.709961	0	14
738	1187.050049	0	14
739	1225.780029	0	14
740	1127.050049	0	14
741	1122.170044	0	14
742	1107.390015	0	14
743	1082.660034	0	14
744	1124.819946	0	14
745	1102.369995	0	14
746	1102.939941	0	14
747	1127.270020	0	14
748	1170.469971	0	14
749	1083.160034	0	14
750	1115.479980	0	14
751	1174.250000	0	14
752	1134.040039	0	14
753	1077.089966	0	14
754	1148.969971	0	14
755	1123.319946	0	14
756	1161.709961	0	14
757	1116.270020	0	14
758	1153.030029	0	14
759	1143.109985	0	14
760	1184.469971	0	14
761	1131.670044	0	14
762	1131.300049	0	14
763	1171.189941	0	14
764	1117.760010	0	14
765	1162.400024	0	14
766	1056.859985	0	14
767	943.132996	0	14
768	1259.910034	0	14
769	1181.140015	0	14
770	1164.079956	0	14
771	1157.119995	0	14
772	1171.869995	0	14
773	1148.689941	0	14
774	1149.959961	0	14
775	1169.119995	0	14
776	1149.119995	0	14
777	1132.000000	0	14
778	1140.500000	0	14
779	1073.979980	0	14
780	1171.550049	0	14
781	1102.469971	0	14
782	1129.410034	0	14
783	1135.439941	0	14
784	1147.900024	0	14
785	981.013000	0	14
786	1156.030029	0	14
787	937.989014	0	14
788	1093.630005	0	14
789	1173.890015	0	14
790	1129.420044	0	14
791	1157.119995	0	14
792	1110.430054	0	14
793	1123.400024	0	14
794	1185.930054	0	14
795	1152.290039	0	14
796	1135.560059	0	14
797	1129.119995	0	14
798	1029.000000	0	14
799	1142.290039	0	14
800	1005.849976	0	14
801	1110.089966	0	14
802	1175.719971	0	14
803	1153.619995	0	14
804	1125.319946	0	14
805	1118.290039	0	14
806	1142.560059	0	14
807	1115.949951	0	14
808	1211.979980	0	14
809	1165.930054	0	14
810	1185.810059	0	14
811	1153.300049	0	14
812	1168.900024	0	14
813	1187.900024	0	14
814	1209.430054	0	14
815	1194.020020	0	14
816	1110.050049	0	14
817	1154.099976	0	14
818	1006.869995	0	14
819	1128.300049	0	14
820	1154.520020	0	14
821	1142.670044	0	14
822	1157.229980	0	14
823	1124.540039	0	14
824	1130.119995	0	14
825	1137.060059	0	14
826	1134.630005	0	14
827	1166.510010	0	14
828	1171.290039	0	14
829	763.687012	0	14
830	1161.109985	0	14
831	1025.410034	0	14
832	1144.260010	0	14
833	1113.530029	0	14
834	1142.300049	0	14
835	1145.939941	0	14
836	1164.540039	0	14
837	1140.770020	0	14
838	1121.109985	0	14
839	1138.979980	0	14
840	1154.250000	0	14
841	1117.849976	0	14
842	1124.540039	0	14
843	1104.900024	0	14
844	1173.219971	0	14
845	1167.000000	0	14
846	1091.949951	0	14
847	1035.140015	0	14
848	1155.180054	0	14
849	1116.229980	0	14
850	1146.170044	0	14
851	1163.699951	0	14
852	1139.010010	0	14
853	1120.869995	0	14
854	1128.599976	0	14
855	1148.739990	0	14
856	1122.290039	0	14
857	1107.449951	0	14
858	1150.030029	0	14
859	1142.510010	0	14
860	1152.660034	0	14
861	1165.439941	0	14
862	1138.790039	0	14
863	1181.719971	0	14
864	1111.680054	0	14
865	1146.719971	0	14
866	1140.579956	0	14
867	1127.430054	0	14
868	1162.479980	0	14
869	1115.489990	0	14
870	1148.810059	0	14
871	1010.409973	0	14
872	1135.910034	0	14
873	1127.000000	0	14
874	1142.900024	0	14
875	1070.569946	0	14
876	1131.410034	0	14
877	1138.910034	0	14
878	1151.829956	0	14
879	1067.430054	0	14
880	1138.900024	0	14
881	1118.229980	0	14
882	1118.800049	0	14
883	1041.020020	0	14
884	1153.900024	0	14
885	1102.000000	0	14
886	1122.439941	0	14
887	1163.219971	0	14
888	1088.199951	0	14
889	1159.020020	0	14
890	1128.209961	0	14
891	1130.599976	0	14
892	993.947021	0	14
893	1117.859985	0	14
894	1127.250000	0	14
895	1153.880005	0	14
896	1080.650024	0	14
897	1124.520020	0	14
898	1115.949951	0	14
899	1142.780029	0	14
900	1121.310059	0	14
901	1169.949951	0	14
902	1127.890015	0	14
903	1071.920044	0	14
904	1149.859985	0	14
905	1156.410034	0	14
906	1161.640015	0	14
907	1151.760010	0	14
908	892.007996	0	14
909	1136.439941	0	14
910	1148.540039	0	14
911	1126.819946	0	14
912	1126.170044	0	14
913	1095.510010	0	14
914	1152.219971	0	14
915	1146.130005	0	14
916	1161.709961	0	14
917	1152.550049	0	14
918	1153.270020	0	14
919	1131.790039	0	14
920	1174.199951	0	14
921	1137.050049	0	14
922	1137.040039	0	14
923	1170.180054	0	14
924	1193.849976	0	14
925	1103.030029	0	14
926	1146.729980	0	14
927	987.994019	0	14
928	1107.770020	0	14
929	1156.780029	0	14
930	891.382019	0	14
931	791.653015	0	14
932	1199.010010	0	14
933	1060.000000	0	14
934	813.521973	0	14
935	1142.489990	0	14
936	960.492981	0	14
937	1133.760010	0	14
938	1114.550049	0	14
939	1148.530029	0	14
940	1125.880005	0	14
941	1115.500000	0	14
942	1156.949951	0	14
943	1148.579956	0	14
944	1143.459961	0	14
945	1163.020020	0	14
946	1143.439941	0	14
947	1124.900024	0	14
948	1121.760010	0	14
949	1029.459961	0	14
950	1154.880005	0	14
951	1053.250000	0	14
952	1147.609985	0	14
953	1131.709961	0	14
954	1125.579956	0	14
955	1137.260010	0	14
956	1167.689941	0	14
957	1182.790039	0	14
958	1145.290039	0	14
959	1114.849976	0	14
960	1132.060059	0	14
961	1148.599976	0	14
962	1152.829956	0	14
963	1126.290039	0	14
964	1184.390015	0	14
965	1172.750000	0	14
966	1239.300049	0	14
967	1134.109985	0	14
968	1139.000000	0	14
969	1142.260010	0	14
970	1139.180054	0	14
971	1157.479980	0	14
972	1071.729980	0	14
973	1117.160034	0	14
974	1133.810059	0	14
975	1179.209961	0	14
976	1156.500000	0	14
977	954.669006	0	14
978	1150.359985	0	14
979	974.482971	0	14
980	1147.430054	0	14
981	1129.369995	0	14
982	1114.489990	0	14
983	788.921997	0	14
984	1119.040039	0	14
985	1182.569946	0	14
986	1107.060059	0	14
987	1130.079956	0	14
988	980.497986	0	14
989	1178.079956	0	14
990	1157.359985	0	14
991	1124.209961	0	14
992	1127.680054	0	14
993	1143.359985	0	14
994	1176.930054	0	14
995	1060.439941	0	14
996	1087.040039	0	14
997	1141.900024	0	14
998	1183.770020	0	14
999	873.861023	0	14
1000	1173.550049	0	14
1001	1137.140015	0	14
1002	1152.439941	0	14
1003	1138.650024	0	14
1004	1101.319946	0	14
1005	1144.530029	0	14
1006	1150.609985	0	14
1007	1032.979980	0	14
1008	1129.869995	0	14
1009	965.788025	0	14
1010	1118.180054	0	14
1011	993.515015	0	14
1012	1144.390015	0	14
1013	1120.390015	0	14
1014	1277.500000	0	14
1015	1168.489990	0	14
1016	1091.479980	0	14
1017	1080.040039	0	14
1018	1142.170044	0	14
1019	1156.780029	0	14
1020	1132.500000	0	14
1021	1166.359985	0	14
1022	1114.390015	0	14
1023	1104.939941	0	14
1024	1163.229980	0	14
1025	1134.060059	0	14
1026	1109.060059	0	14
1027	1110.839966	0	14
1028	1171.400024	0	14
1029	1133.839966	0	14
1030	1126.930054	0	14
1031	1121.949951	0	14
1032	1148.520020	0	14
1033	1260.949951	0	14
1034	1143.349976	0	14
1035	1171.699951	0	14
1036	1177.430054	0	14
1037	1136.040039	0	14
1038	1146.609985	0	14
1039	983.343018	0	14
1040	1149.030029	0	14
1041	1084.050049	0	14
1042	1137.599976	0	14
1043	1168.550049	0	14
1044	1149.839966	0	14
1045	1177.569946	0	14
1046	1155.869995	0	14
1047	1137.469971	0	14
1048	1118.339966	0	14
1049	1112.609985	0	14
1050	1121.819946	0	14
1051	1176.189941	0	14
1052	1108.459961	0	14
1053	1149.930054	0	14
1054	1015.820007	0	14
1055	1178.369995	0	14
1056	1099.209961	0	14
1057	956.685974	0	14
1058	1219.060059	0	14
1059	1095.349976	0	14
1060	1026.699951	0	14
1061	1029.290039	0	14
1062	1139.150024	0	14
1063	1080.849976	0	14
1064	1127.430054	0	14
1065	1116.750000	0	14
1066	1108.650024	0	14
1067	1124.579956	0	14
1068	1158.390015	0	14
1069	1138.930054	0	14
1070	1140.119995	0	14
1071	1146.449951	0	14
1072	1063.859985	0	14
1073	1110.790039	0	14
1074	1148.560059	0	14
1075	1155.939941	0	14
1076	1173.959961	0	14
1077	1117.420044	0	14
1078	1017.960022	0	14
1079	1045.010010	0	14
1080	1154.589966	0	14
1081	1146.479980	0	14
1082	1167.989990	0	14
1083	1150.469971	0	14
1084	1017.960022	0	14
1085	1142.390015	0	14
1086	1131.670044	0	14
1087	1149.890015	0	14
1088	1152.359985	0	14
1089	1135.469971	0	14
1090	1093.890015	0	14
1091	1143.890015	0	14
1092	1128.349976	0	14
1093	1175.859985	0	14
1094	1149.670044	0	14
1095	1091.140015	0	14
1096	1158.420044	0	14
1097	1131.170044	0	14
1098	1076.739990	0	14
1099	953.872009	0	14
1100	1131.810059	0	14
1101	1065.140015	0	14
1102	1111.859985	0	14
1103	1111.719971	0	14
1104	1096.369995	0	14
1105	1099.280029	0	14
1106	1138.959961	0	14
1107	1130.160034	0	14
1108	1179.540039	0	14
1109	1134.430054	0	14
1110	1145.750000	0	14
1111	1168.969971	0	14
1112	1101.040039	0	14
1113	818.593994	0	14
1114	1151.630005	0	14
1115	1093.339966	0	14
1116	1135.180054	0	14
1117	1178.060059	0	14
1118	1103.380005	0	14
1119	1027.760010	0	14
1120	1116.550049	0	14
1121	1132.869995	0	14
1122	1141.979980	0	14
1123	1038.060059	0	14
1124	1171.680054	0	14
1125	1141.430054	0	14
1126	1126.219971	0	14
1127	1148.170044	0	14
1128	1139.790039	0	14
1129	1139.689941	0	14
1130	1156.810059	0	14
1131	1169.310059	0	14
1132	1139.119995	0	14
1133	972.228027	0	14
1134	1133.479980	0	14
1135	1114.959961	0	14
1136	1148.670044	0	14
1137	1113.459961	0	14
1138	1094.880005	0	14
1139	1112.930054	0	14
1140	1132.020020	0	14
1141	1041.189941	0	14
1142	1155.170044	0	14
1143	1151.390015	0	14
1144	902.184998	0	14
1145	1114.790039	0	14
1146	1119.260010	0	14
1147	1119.150024	0	14
1148	1148.760010	0	14
1149	1139.530029	0	14
1150	1156.670044	0	14
1151	1068.310059	0	14
1152	1145.819946	0	14
1153	1155.310059	0	14
1154	1379.770020	0	14
1155	894.197021	0	14
1156	1148.989990	0	14
1157	1159.829956	0	14
1158	1123.719971	0	14
1159	1106.800049	0	14
1160	1123.430054	0	14
1161	840.398987	0	14
1162	1156.569946	0	14
1163	1146.760010	0	14
1164	1102.160034	0	14
1165	1155.339966	0	14
1166	1154.040039	0	14
1167	1141.540039	0	14
1168	1154.410034	0	14
1169	1145.339966	0	14
1170	1161.880005	0	14
1171	1121.729980	0	14
1172	1090.189941	0	14
1173	1012.059998	0	14
1174	1114.930054	0	14
1175	1118.369995	0	14
1176	957.148987	0	14
1177	1155.310059	0	14
1178	1152.180054	0	14
1179	1103.119995	0	14
1180	1125.390015	0	14
1181	1140.869995	0	14
1182	1175.300049	0	14
1183	1100.079956	0	14
1184	1130.910034	0	14
1185	1173.489990	0	14
1186	1140.969971	0	14
1187	1187.380005	0	14
1188	1094.589966	0	14
1189	1151.280029	0	14
1190	1111.910034	0	14
1191	1153.609985	0	14
1192	1336.930054	0	14
1193	1167.469971	0	14
1194	1146.510010	0	14
1195	1184.839966	0	14
1196	1147.119995	0	14
1197	1153.300049	0	14
1198	1170.469971	0	14
1199	1038.459961	0	14
1200	1151.099976	0	14
1201	1069.989990	0	14
1202	1168.880005	0	14
1203	1150.500000	0	14
1204	1132.959961	0	14
1205	1144.329956	0	14
1206	1158.699951	0	14
1207	1195.859985	0	14
1208	1127.030029	0	14
1209	1139.469971	0	14
1210	1089.069946	0	14
1211	1162.829956	0	14
1212	1129.949951	0	14
1213	1130.380005	0	14
1214	1178.640015	0	14
1215	1089.819946	0	14
1216	1083.079956	0	14
1217	1137.079956	0	14
1218	1178.479980	0	14
1219	1134.930054	0	14
1220	1131.020020	0	14
1221	1120.689941	0	14
1222	1149.900024	0	14
1223	1152.699951	0	14
1224	1144.430054	0	14
1225	1165.890015	0	14
1226	1124.189941	0	14
1227	1165.219971	0	14
1228	1127.579956	0	14
1229	1100.770020	0	14
1230	1107.719971	0	14
1231	1165.930054	0	14
1232	1142.140015	0	14
1233	1160.140015	0	14
1234	1067.609985	0	14
1235	1159.750000	0	14
1236	1148.579956	0	14
1237	1149.770020	0	14
1238	1110.829956	0	14
1239	964.921021	0	14
1240	1157.160034	0	14
1241	1112.839966	0	14
1242	1174.550049	0	14
1243	1163.959961	0	14
1244	1195.050049	0	14
1245	1051.510010	0	14
1246	1162.239990	0	14
1247	1130.420044	0	14
1248	1126.410034	0	14
1249	1155.510010	0	14
1250	1152.680054	0	14
1251	1099.430054	0	14
1252	1165.670044	0	14
1253	1139.119995	0	14
1254	1150.560059	0	14
1255	1104.900024	0	14
1256	1155.839966	0	14
1257	1156.880005	0	14
1258	1142.880005	0	14
1259	1154.319946	0	14
1260	1136.689941	0	14
1261	1093.050049	0	14
1262	1155.719971	0	14
1263	1119.869995	0	14
1264	1098.099976	0	14
1265	1125.319946	0	14
1266	1135.339966	0	14
1267	1166.140015	0	14
1268	1167.770020	0	14
1269	1164.020020	0	14
1270	1141.380005	0	14
1271	1139.199951	0	14
1272	1110.699951	0	14
1273	1164.229980	0	14
1274	1199.319946	0	14
1275	1115.119995	0	14
1276	1145.380005	0	14
1277	1153.729980	0	14
1278	1065.410034	0	14
1279	1032.099976	0	14
1280	1183.510010	0	14
1281	1115.079956	0	14
1282	1127.229980	0	14
1283	1146.290039	0	14
1284	1112.579956	0	14
1285	1149.339966	0	14
1286	1146.609985	0	14
1287	1122.550049	0	14
1288	1140.699951	0	14
1289	1167.020020	0	14
1290	1126.609985	0	14
1291	1125.709961	0	14
1292	1149.479980	0	14
1293	1145.109985	0	14
1294	1092.530029	0	14
1295	1179.569946	0	14
1296	1112.300049	0	14
1297	1140.150024	0	14
1298	944.784973	0	14
1299	1137.530029	0	14
1300	1135.170044	0	14
1301	1143.890015	0	14
1302	1177.400024	0	14
1303	1057.099976	0	14
1304	1054.890015	0	14
1305	1153.680054	0	14
1306	1071.030029	0	14
1307	1088.140015	0	14
1308	1100.219971	0	14
1309	1101.489990	0	14
1310	1172.530029	0	14
1311	1167.199951	0	14
1312	1135.229980	0	14
1313	1158.410034	0	14
1314	1128.339966	0	14
1315	1184.900024	0	14
1316	1191.800049	0	14
1317	1140.319946	0	14
1318	1147.989990	0	14
1319	1144.739990	0	14
1320	1110.150024	0	14
1321	1097.050049	0	14
1322	1164.630005	0	14
1323	1139.609985	0	14
1324	1169.680054	0	14
1325	1037.140015	0	14
1326	1183.229980	0	14
1327	1242.030029	0	14
1328	1129.810059	0	14
1329	1186.180054	0	14
1330	1160.569946	0	14
1331	1070.469971	0	14
1332	1119.239990	0	14
1333	1136.849976	0	14
1334	1121.550049	0	14
1335	1142.089966	0	14
1336	1159.020020	0	14
1337	1044.250000	0	14
1338	1133.510010	0	14
1339	1091.979980	0	14
1340	1133.819946	0	14
1341	1130.290039	0	14
1342	1135.500000	0	14
1343	1135.589966	0	14
1344	1114.790039	0	14
1345	1028.329956	0	14
1346	1183.369995	0	14
1347	1118.569946	0	14
1348	1171.630005	0	14
1349	1117.959961	0	14
1350	1071.380005	0	14
1351	1003.469971	0	14
1352	1165.489990	0	14
1353	1014.260010	0	14
1354	1097.500000	0	14
1355	1295.229980	0	14
1356	1133.869995	0	14
1357	1143.349976	0	14
1358	1151.660034	0	14
1359	1167.489990	0	14
1360	1138.729980	0	14
1361	1150.359985	0	14
1362	1162.619995	0	14
1363	1163.290039	0	14
1364	1161.930054	0	14
1365	1149.239990	0	14
1366	1155.739990	0	14
1367	1159.099976	0	14
1368	1085.790039	0	14
1369	1155.969971	0	14
1370	1150.280029	0	14
1371	1154.449951	0	14
1372	1149.060059	0	14
1373	1128.849976	0	14
1374	1172.229980	0	14
1375	1144.270020	0	14
1376	1128.290039	0	14
1377	1143.780029	0	14
1378	1092.219971	0	14
1379	846.077026	0	14
1380	1113.150024	0	14
1381	1173.060059	0	14
1382	1151.949951	0	14
1383	1118.020020	0	14
1384	1170.500000	0	14
1385	1128.510010	0	14
1386	1155.640015	0	14
1387	1156.400024	0	14
1388	1132.069946	0	14
1389	918.297974	0	14
1390	947.034973	0	14
1391	1168.380005	0	14
1392	1077.910034	0	14
1393	1085.280029	0	14
1394	954.216980	0	14
1395	1055.640015	0	14
1396	1106.430054	0	14
1397	1104.060059	0	14
1398	1100.040039	0	14
1399	1133.869995	0	14
1400	1078.569946	0	14
1401	1085.569946	0	14
1402	1112.770020	0	14
1403	1110.890015	0	14
1404	1112.930054	0	14
1405	1147.280029	0	14
1406	1051.739990	0	14
1407	1222.609985	0	14
1408	1117.890015	0	14
1409	1129.819946	0	14
1410	1138.420044	0	14
1411	1183.739990	0	14
1412	1154.170044	0	14
1413	1108.359985	0	14
1414	1090.000000	0	14
1415	1019.340027	0	14
1416	1124.390015	0	14
1417	1149.410034	0	14
1418	1111.339966	0	14
1419	1151.699951	0	14
1420	1138.050049	0	14
1421	1181.199951	0	14
1422	1130.790039	0	14
1423	1040.219971	0	14
1424	1111.540039	0	14
1425	981.739014	0	14
1426	1151.250000	0	14
1427	1121.949951	0	14
1428	1126.510010	0	14
1429	1167.810059	0	14
1430	1142.030029	0	14
1431	1154.400024	0	14
1432	1164.719971	0	14
1433	1159.630005	0	14
1434	1160.209961	0	14
1435	1094.989990	0	14
1436	1132.959961	0	14
1437	1112.500000	0	14
1438	910.377991	0	14
1439	1165.540039	0	14
1440	1105.140015	0	14
1441	1127.140015	0	14
1442	1138.000000	0	14
1443	1118.699951	0	14
1444	932.302002	0	14
1445	1132.770020	0	14
1446	1088.510010	0	14
1447	1143.760010	0	14
1448	1149.979980	0	14
1449	1122.079956	0	14
1450	1137.189941	0	14
1451	1101.439941	0	14
1452	1048.229980	0	14
1453	1135.300049	0	14
1454	961.231995	0	14
1455	1058.119995	0	14
1456	1150.270020	0	14
1457	1144.810059	0	14
1458	1157.359985	0	14
1459	1092.319946	0	14
1460	1156.739990	0	14
1461	1146.969971	0	14
1462	1146.229980	0	14
1463	1175.829956	0	14
1464	1143.109985	0	14
1465	1137.939941	0	14
1466	1148.310059	0	14
1467	1181.959961	0	14
1468	1141.199951	0	14
1469	1140.579956	0	14
1470	1139.760010	0	14
1471	1054.949951	0	14
1472	1153.520020	0	14
1473	1136.890015	0	14
1474	1152.969971	0	14
1475	1033.859985	0	14
1476	1075.229980	0	14
1477	1125.869995	0	14
1478	1167.219971	0	14
1479	1144.949951	0	14
1480	1146.030029	0	14
1481	1119.969971	0	14
1482	1121.430054	0	14
1483	1100.520020	0	14
1484	1133.290039	0	14
1485	1108.640015	0	14
1486	1154.520020	0	14
1487	1156.869995	0	14
1488	1150.589966	0	14
1489	1132.189941	0	14
1490	1146.140015	0	14
1491	1157.250000	0	14
1492	1153.949951	0	14
1493	1108.959961	0	14
1494	1101.760010	0	14
1495	1146.900024	0	14
1496	1114.160034	0	14
1497	1127.339966	0	14
1498	1132.459961	0	14
1499	1116.800049	0	14
1500	1165.689941	0	14
1501	1143.189941	0	14
1502	1205.319946	0	14
1503	1059.760010	0	14
1504	1143.969971	0	14
1505	1164.599976	0	14
1506	1187.280029	0	14
1507	1245.040039	0	14
1508	1143.750000	0	14
1509	1080.290039	0	14
1510	1157.449951	0	14
1511	1142.459961	0	14
1512	1144.790039	0	14
1513	1114.369995	0	14
1514	1136.319946	0	14
1515	1173.969971	0	14
1516	1119.170044	0	14
1517	1127.900024	0	14
1518	1120.699951	0	14
1519	987.887024	0	14
1520	1172.819946	0	14
1521	1093.160034	0	14
1522	1177.489990	0	14
1523	1133.689941	0	14
1524	1113.770020	0	14
1525	940.056030	0	14
1526	1143.949951	0	14
1527	1171.400024	0	14
1528	1096.699951	0	14
1529	1126.540039	0	14
1530	1106.369995	0	14
1531	1123.630005	0	14
1532	1187.050049	0	14
1533	1226.209961	0	14
1534	1182.520020	0	14
1535	1132.339966	0	14
1536	1120.910034	0	14
1537	1120.969971	0	14
1538	1136.760010	0	14
1539	1155.500000	0	14
1540	1159.959961	0	14
1541	1088.020020	0	14
1542	1138.349976	0	14
1543	1013.150024	0	14
1544	1152.930054	0	14
1545	1134.130005	0	14
1546	1118.250000	0	14
1547	1121.250000	0	14
1548	1151.560059	0	14
1549	1193.880005	0	14
1550	1138.959961	0	14
1551	1128.540039	0	14
1552	1142.560059	0	14
1553	1118.260010	0	14
1554	1212.829956	0	14
1555	1164.140015	0	14
1556	1122.250000	0	14
1557	1166.829956	0	14
1558	1148.250000	0	14
1559	1163.119995	0	14
1560	1138.239990	0	14
1561	1143.670044	0	14
1562	1119.689941	0	14
1563	1142.130005	0	14
1564	1139.510010	0	14
1565	1151.800049	0	14
1566	1108.750000	0	14
1567	1119.390015	0	14
1568	1161.709961	0	14
1569	1155.030029	0	14
1570	1160.199951	0	14
1571	1138.079956	0	14
1572	1079.770020	0	14
1573	1113.739990	0	14
1574	1159.229980	0	14
1575	1155.959961	0	14
1576	1126.099976	0	14
1577	1145.930054	0	14
1578	1189.819946	0	14
1579	1109.500000	0	14
1580	1169.750000	0	14
1581	1163.800049	0	14
1582	1145.319946	0	14
1583	1088.619995	0	14
1584	1152.680054	0	14
1585	1125.979980	0	14
1586	1147.939941	0	14
1587	1133.630005	0	14
1588	1130.170044	0	14
1589	1205.150024	0	14
1590	965.638977	0	14
1591	1137.699951	0	14
1592	1170.979980	0	14
1593	1143.260010	0	14
1594	1131.489990	0	14
1595	1083.599976	0	14
1596	1146.650024	0	14
1597	1116.140015	0	14
1598	1063.920044	0	14
1599	1122.989990	0	14
1600	1140.359985	0	14
1601	1143.479980	0	14
1602	1167.550049	0	14
1603	1207.189941	0	14
1604	1184.599976	0	14
1605	1151.089966	0	14
1606	1178.420044	0	14
1607	1093.010010	0	14
1608	1169.609985	0	14
1609	1229.939941	0	14
1610	1102.290039	0	14
1611	1096.410034	0	14
1612	1120.500000	0	14
1613	1120.469971	0	14
1614	1080.609985	0	14
1615	1128.560059	0	14
1616	1166.520020	0	14
1617	1149.930054	0	14
1618	1085.369995	0	14
1619	1151.880005	0	14
1620	1109.089966	0	14
1621	1080.760010	0	14
1622	1150.459961	0	14
1623	1120.790039	0	14
1624	1164.780029	0	14
1625	1142.920044	0	14
1626	1110.630005	0	14
1627	1157.689941	0	14
1628	1182.520020	0	14
1629	1123.540039	0	14
1630	1124.709961	0	14
1631	1124.569946	0	14
1632	1133.140015	0	14
1633	1116.439941	0	14
1634	1125.420044	0	14
1635	1116.739990	0	14
1636	1144.430054	0	14
1637	1171.290039	0	14
1638	1164.000000	0	14
1639	1027.780029	0	14
1640	1143.890015	0	14
1641	1059.040039	0	14
1642	1044.310059	0	14
1643	1084.969971	0	14
1644	1127.900024	0	14
1645	1145.670044	0	14
1646	1135.209961	0	14
1647	1121.890015	0	14
1648	1139.770020	0	14
1649	1134.280029	0	14
1650	1227.130005	0	14
1651	1173.089966	0	14
1652	1142.260010	0	14
1653	1174.339966	0	14
1654	1145.229980	0	14
1655	1102.290039	0	14
1656	1131.750000	0	14
1657	1145.469971	0	14
1658	1106.410034	0	14
1659	1161.510010	0	14
1660	1171.810059	0	14
1661	1092.510010	0	14
1662	1142.380005	0	14
1663	1022.039978	0	14
1664	1206.060059	0	14
1665	1058.260010	0	14
1666	1086.660034	0	14
1667	1196.619995	0	14
1668	1121.400024	0	14
1669	1134.680054	0	14
1670	966.153992	0	14
1671	1153.979980	0	14
1672	1097.540039	0	14
1673	1142.770020	0	14
1674	1123.280029	0	14
1675	1170.119995	0	14
1676	1174.150024	0	14
1677	1169.989990	0	14
1678	1087.680054	0	14
1679	1108.209961	0	14
1680	1127.430054	0	14
1681	1128.880005	0	14
1682	1142.420044	0	14
1683	1117.180054	0	14
1684	1094.520020	0	14
1685	1146.569946	0	14
1686	1114.810059	0	14
1687	1128.250000	0	14
1688	1104.260010	0	14
1689	1053.910034	0	14
1690	1159.420044	0	14
1691	631.825989	0	14
1692	1120.089966	0	14
1693	1140.829956	0	14
1694	1141.030029	0	14
1695	1156.099976	0	14
1696	1125.760010	0	14
1697	1135.479980	0	14
1698	1187.579956	0	14
1699	1137.790039	0	14
1700	1145.469971	0	14
1701	1124.140015	0	14
1702	1171.109985	0	14
1703	1154.609985	0	14
1704	1155.619995	0	14
1705	1182.050049	0	14
1706	1140.579956	0	14
1707	1144.040039	0	14
1708	1072.550049	0	14
1709	1150.560059	0	14
1710	1147.670044	0	14
1711	1151.250000	0	14
1712	1114.290039	0	14
1713	1167.209961	0	14
1714	1176.489990	0	14
1715	1066.189941	0	14
1716	1140.410034	0	14
1717	1119.010010	0	14
1718	1140.219971	0	14
1719	1118.010010	0	14
1720	1144.979980	0	14
1721	1160.040039	0	14
1722	1068.880005	0	14
1723	1143.579956	0	14
1724	1149.660034	0	14
1725	1134.510010	0	14
1726	1136.390015	0	14
1727	1112.819946	0	14
1728	1146.660034	0	14
1729	1114.540039	0	14
1730	1165.199951	0	14
1731	1158.709961	0	14
1732	1156.359985	0	14
1733	1157.780029	0	14
1734	1125.760010	0	14
1735	777.556030	0	14
1736	1025.459961	0	14
1737	1108.530029	0	14
1738	1143.930054	0	14
1739	1127.520020	0	14
1740	1109.449951	0	14
1741	1001.770020	0	14
1742	1154.719971	0	14
1743	1154.459961	0	14
1744	1129.280029	0	14
1745	1168.709961	0	14
1746	1184.079956	0	14
1747	1161.849976	0	14
1748	1166.060059	0	14
1749	1147.780029	0	14
1750	1140.670044	0	14
1751	1118.479980	0	14
1752	1128.040039	0	14
1753	1148.189941	0	14
1754	1123.839966	0	14
1755	979.252991	0	14
1756	1158.810059	0	14
1757	1131.959961	0	14
1758	1122.939941	0	14
1759	1058.349976	0	14
1760	1083.839966	0	14
1761	1156.760010	0	14
1762	1147.530029	0	14
1763	1162.500000	0	14
1764	1152.959961	0	14
1765	1113.650024	0	14
1766	1140.920044	0	14
1767	1158.010010	0	14
1768	1136.050049	0	14
1769	1101.750000	0	14
1770	1166.479980	0	14
1771	1128.969971	0	14
1772	1178.819946	0	14
1773	1140.130005	0	14
1774	1133.780029	0	14
1775	1158.709961	0	14
1776	1080.180054	0	14
1777	1140.859985	0	14
1778	1112.030029	0	14
1779	1070.050049	0	14
1780	1153.020020	0	14
1781	1141.060059	0	14
1782	1156.079956	0	14
1783	1091.729980	0	14
1784	1144.040039	0	14
1785	1111.959961	0	14
1786	1168.000000	0	14
1787	1049.050049	0	14
1788	1130.089966	0	14
1789	1130.349976	0	14
1790	1157.550049	0	14
1791	1164.150024	0	14
1792	1137.439941	0	14
1793	1093.949951	0	14
1794	1215.910034	0	14
1795	1183.420044	0	14
1796	1151.329956	0	14
1797	1137.540039	0	14
1798	1143.729980	0	14
1799	1165.900024	0	14
1800	1126.010010	0	14
1801	1116.449951	0	14
1802	1106.319946	0	14
1803	1124.040039	0	14
1804	1114.459961	0	14
1805	1140.599976	0	14
1806	1123.380005	0	14
1807	1173.500000	0	14
1808	1179.510010	0	14
1809	1165.270020	0	14
1810	1171.469971	0	14
1811	1184.459961	0	14
1812	1122.380005	0	14
1813	1026.079956	0	14
1814	1145.020020	0	14
1815	1121.920044	0	14
1816	1103.650024	0	14
1817	1159.180054	0	14
1818	1187.540039	0	14
1819	1096.079956	0	14
1820	934.789978	0	14
1821	1094.739990	0	14
1822	1141.550049	0	14
1823	1182.510010	0	14
1824	1120.699951	0	14
1825	1094.520020	0	14
1826	1134.430054	0	14
1827	1137.810059	0	14
1828	1139.949951	0	14
1829	1610.829956	0	14
1830	851.221008	0	14
1831	1134.109985	0	14
1832	1022.640015	0	14
1833	1140.040039	0	14
1834	1112.650024	0	14
1835	1138.109985	0	14
1836	1093.949951	0	14
1837	1120.869995	0	14
1838	1126.130005	0	14
1839	1131.880005	0	14
1840	1135.819946	0	14
1841	1042.060059	0	14
1842	1182.770020	0	14
1843	1186.859985	0	14
1844	1135.270020	0	14
1845	1176.430054	0	14
1846	1164.130005	0	14
1847	1128.920044	0	14
1848	1148.060059	0	14
1849	1137.569946	0	14
1850	1134.050049	0	14
1851	1129.739990	0	14
1852	1138.790039	0	14
1853	1149.390015	0	14
1854	1121.010010	0	14
1855	1108.670044	0	14
1856	1143.689941	0	14
1857	1110.890015	0	14
1858	1158.660034	0	14
1859	1137.109985	0	14
1860	1148.380005	0	14
1861	1147.520020	0	14
1862	1145.719971	0	14
1863	1126.170044	0	14
1864	1053.430054	0	14
1865	1147.760010	0	14
1866	1071.670044	0	14
1867	1010.309998	0	14
1868	1118.150024	0	14
1869	1100.400024	0	14
1870	1071.739990	0	14
1871	1123.760010	0	14
1872	1125.180054	0	14
1873	1130.750000	0	14
1874	1131.650024	0	14
1875	1167.250000	0	14
1876	1109.819946	0	14
1877	1125.589966	0	14
1878	1148.030029	0	14
1879	1154.280029	0	14
1880	1125.579956	0	14
1881	1154.619995	0	14
1882	1138.569946	0	14
1883	1100.400024	0	14
1884	1221.489990	0	14
1885	1120.770020	0	14
1886	1149.540039	0	14
1887	1177.719971	0	14
1888	1147.109985	0	14
1889	1176.709961	0	14
1890	1183.359985	0	14
1891	941.903992	0	14
1892	1106.189941	0	14
1893	849.419006	0	14
1894	1213.000000	0	14
1895	1018.340027	0	14
1896	1164.780029	0	14
1897	1167.170044	0	14
1898	1154.900024	0	14
1899	1169.390015	0	14
1900	1158.760010	0	14
1901	1080.530029	0	14
1902	1153.050049	0	14
1903	1125.579956	0	14
1904	1161.349976	0	14
1905	1084.589966	0	14
1906	1047.780029	0	14
1907	1151.050049	0	14
1908	1169.670044	0	14
1909	1167.219971	0	14
1910	1135.670044	0	14
1911	1047.040039	0	14
1912	1142.939941	0	14
1913	1150.000000	0	14
1914	1133.500000	0	14
1915	949.890991	0	14
1916	1150.420044	0	14
1917	1083.290039	0	14
1918	1154.349976	0	14
1919	1092.949951	0	14
1920	1133.180054	0	14
1921	1113.569946	0	14
1922	1103.239990	0	14
1923	1132.969971	0	14
1924	1164.319946	0	14
1925	970.653015	0	14
1926	1038.319946	0	14
1927	1154.979980	0	14
1928	1133.920044	0	14
1929	1134.849976	0	14
1930	876.994995	0	14
1931	994.041992	0	14
1932	1134.599976	0	14
1933	914.698975	0	14
1934	1111.359985	0	14
1935	1127.890015	0	14
1936	939.734985	0	14
1937	1181.420044	0	14
1938	1132.400024	0	14
1939	500.878998	0	14
1940	1013.340027	0	14
1941	1139.390015	0	14
1942	1146.359985	0	14
1943	1074.939941	0	14
1944	1158.300049	0	14
1945	1162.939941	0	14
1946	1029.439941	0	14
1947	1148.650024	0	14
1948	1150.180054	0	14
1949	1174.979980	0	14
1950	1107.729980	0	14
1951	1131.660034	0	14
1952	1177.060059	0	14
1953	1133.630005	0	14
1954	1039.390015	0	14
1955	1131.270020	0	14
1956	1139.709961	0	14
1957	1209.849976	0	14
1958	1121.300049	0	14
1959	1098.969971	0	14
1960	1120.660034	0	14
1961	1148.500000	0	14
1962	1166.910034	0	14
1963	1160.520020	0	14
1964	1156.949951	0	14
1965	1122.449951	0	14
1966	1121.290039	0	14
1967	1142.619995	0	14
1968	999.810974	0	14
1969	1130.099976	0	14
1970	1135.810059	0	14
1971	1149.959961	0	14
1972	1153.880005	0	14
1973	1152.579956	0	14
1974	1156.949951	0	14
1975	1155.030029	0	14
1976	1119.439941	0	14
1977	1169.400024	0	14
1978	1154.280029	0	14
1979	1049.910034	0	14
1980	1102.199951	0	14
1981	1051.569946	0	14
1982	1159.510010	0	14
1983	1143.270020	0	14
1984	1070.260010	0	14
1985	1120.410034	0	14
1986	1134.400024	0	14
1987	1064.859985	0	14
1988	1144.020020	0	14
1989	1146.750000	0	14
1990	1145.540039	0	14
1991	1087.619995	0	14
1992	1134.310059	0	14
1993	1155.849976	0	14
1994	1151.180054	0	14
1995	1119.430054	0	14
1996	1144.849976	0	14
1997	1139.329956	0	14
1998	890.791016	0	14
1999	1117.280029	0	14
2000	1145.770020	0	14
2001	1099.780029	0	14
2002	1170.180054	0	14
2003	1168.060059	0	14
2004	1147.579956	0	14
2005	1163.109985	0	14
2006	1144.719971	0	14
2007	1155.739990	0	14
2008	1103.729980	0	14
2009	1153.869995	0	14
2010	1133.150024	0	14
2011	1140.810059	0	14
2012	1127.550049	0	14
2013	1116.689941	0	14
2014	1145.609985	0	14
2015	1132.930054	0	14
2016	1128.260010	0	14
2017	1127.790039	0	14
2018	1128.420044	0	14
2019	1058.839966	0	14
2020	1166.089966	0	14
2021	1150.099976	0	14
2022	1164.030029	0	14
2023	1059.459961	0	14
2024	1110.920044	0	14
2025	1132.750000	0	14
2026	839.843018	0	14
2027	1135.359985	0	14
2028	957.281982	0	14
2029	1135.209961	0	14
2030	1129.900024	0	14
2031	1153.709961	0	14
2032	1140.680054	0	14
2033	1171.280029	0	14
2034	1151.160034	0	14
2035	1140.670044	0	14
2036	1059.300049	0	14
2037	1149.239990	0	14
2038	1128.150024	0	14
2039	1152.849976	0	14
2040	1136.839966	0	14
2041	1138.709961	0	14
2042	1147.550049	0	14
2043	1137.469971	0	14
2044	1097.520020	0	14
2045	1140.250000	0	14
2046	1161.459961	0	14
2047	1105.239990	0	14
2048	1144.930054	0	14
2049	1120.750000	0	14
2050	1174.239990	0	14
2051	1157.270020	0	14
2052	1149.079956	0	14
2053	1191.719971	0	14
2054	1122.189941	0	14
2055	1130.339966	0	14
2056	1142.099976	0	14
2057	1148.229980	0	14
2058	1110.969971	0	14
2059	915.854980	0	14
2060	1114.130005	0	14
2061	807.932983	0	14
2062	971.781006	0	14
2063	1158.079956	0	14
2064	1077.689941	0	14
2065	1107.500000	0	14
2066	1133.260010	0	14
2067	1315.339966	0	14
2068	973.793030	0	14
2069	984.775024	0	14
2070	1132.589966	0	14
2071	1166.040039	0	14
2072	1141.900024	0	14
2073	1126.119995	0	14
2074	815.346985	0	14
2075	1133.579956	0	14
2076	1149.400024	0	14
2077	1231.989990	0	14
2078	1139.729980	0	14
2079	1125.089966	0	14
2080	1133.900024	0	14
2081	1131.300049	0	14
2082	1172.459961	0	14
2083	1067.619995	0	14
2084	1187.719971	0	14
2085	1019.429993	0	14
2086	1080.209961	0	14
2087	1120.910034	0	14
2088	1000.580017	0	14
2089	1183.550049	0	14
2090	1166.079956	0	14
2091	1164.189941	0	14
2092	1048.640015	0	14
2093	1076.050049	0	14
2094	1143.790039	0	14
2095	1128.329956	0	14
2096	1104.800049	0	14
2097	1134.219971	0	14
2098	1152.380005	0	14
2099	1119.150024	0	14
2100	1114.380005	0	14
2101	1016.369995	0	14
2102	1145.660034	0	14
2103	1096.109985	0	14
2104	1124.020020	0	14
2105	985.192993	0	14
2106	1069.469971	0	14
2107	1049.520020	0	14
2108	1152.400024	0	14
2109	1097.439941	0	14
2110	1051.969971	0	14
2111	1131.020020	0	14
2112	1127.479980	0	14
2113	1152.939941	0	14
2114	1095.859985	0	14
2115	1088.859985	0	14
2116	1137.930054	0	14
2117	1120.119995	0	14
2118	1136.920044	0	14
2119	1150.400024	0	14
2120	1153.150024	0	14
2121	1119.400024	0	14
2122	1157.479980	0	14
2123	1153.479980	0	14
2124	1179.380005	0	14
2125	1150.069946	0	14
2126	1132.689941	0	14
2127	1124.520020	0	14
2128	1163.369995	0	14
2129	1110.380005	0	14
2130	1131.939941	0	14
2131	1174.939941	0	14
2132	1171.229980	0	14
2133	1180.219971	0	14
2134	1088.219971	0	14
2135	1151.280029	0	14
2136	1154.550049	0	14
2137	1110.099976	0	14
2138	1149.550049	0	14
2139	1178.969971	0	14
2140	1185.979980	0	14
2141	1166.250000	0	14
2142	1137.849976	0	14
2143	1134.500000	0	14
2144	1178.239990	0	14
2145	1160.339966	0	14
2146	1134.400024	0	14
2147	1028.550049	0	14
2148	1211.260010	0	14
2149	1172.780029	0	14
2150	1167.969971	0	14
2151	1099.140015	0	14
2152	1073.250000	0	14
2153	1124.530029	0	14
2154	1141.020020	0	14
2155	1163.280029	0	14
2156	1119.439941	0	14
2157	1152.550049	0	14
2158	1109.800049	0	14
2159	1144.189941	0	14
2160	1117.410034	0	14
2161	1176.469971	0	14
2162	1126.930054	0	14
2163	1138.160034	0	14
2164	990.229004	0	14
2165	1067.160034	0	14
2166	756.969971	0	14
2167	1137.770020	0	14
2168	1105.699951	0	14
2169	1091.020020	0	14
2170	968.494995	0	14
2171	1169.520020	0	14
2172	1238.339966	0	14
2173	1152.729980	0	14
2174	1131.670044	0	14
2175	1116.760010	0	14
2176	1142.900024	0	14
2177	1165.380005	0	14
2178	838.523010	0	14
2179	1153.589966	0	14
2180	1107.650024	0	14
2181	1132.479980	0	14
2182	1161.520020	0	14
2183	1127.359985	0	14
2184	1139.579956	0	14
2185	1146.420044	0	14
2186	1176.760010	0	14
2187	1084.479980	0	14
2188	1181.209961	0	14
2189	1152.239990	0	14
2190	1134.619995	0	14
2191	898.953979	0	14
2192	1127.250000	0	14
2193	1172.680054	0	14
2194	885.961975	0	14
2195	1141.239990	0	14
2196	1152.890015	0	14
2197	1001.619995	0	14
2198	1141.400024	0	14
2199	1161.020020	0	14
2200	1134.270020	0	14
2201	1166.030029	0	14
2202	1109.729980	0	14
2203	1165.650024	0	14
2204	1037.339966	0	14
2205	1127.130005	0	14
2206	1139.000000	0	14
2207	918.181030	0	14
2208	1132.689941	0	14
2209	957.921021	0	14
2210	1144.250000	0	14
2211	1130.959961	0	14
2212	1039.969971	0	14
2213	1126.530029	0	14
2214	1098.140015	0	14
2215	1020.919983	0	14
2216	1158.030029	0	14
2217	1182.839966	0	14
2218	1153.079956	0	14
2219	922.403992	0	14
2220	1093.359985	0	14
2221	1149.349976	0	14
2222	1005.059998	0	14
2223	948.418030	0	14
2224	1130.489990	0	14
2225	1153.699951	0	14
2226	1067.069946	0	14
2227	1189.890015	0	14
2228	1105.869995	0	14
2229	1143.180054	0	14
2230	1174.189941	0	14
2231	1095.560059	0	14
2232	1157.369995	0	14
2233	1183.199951	0	14
2234	1143.819946	0	14
2235	1100.479980	0	14
2236	1160.300049	0	14
2237	1151.910034	0	14
2238	1140.439941	0	14
2239	1197.439941	0	14
2240	2413.360107	0	28
2241	2242.879883	0	28
2242	2249.800049	0	28
2243	2195.500000	0	28
2244	2266.560059	0	28
2245	2284.020020	0	28
2246	1854.810059	0	28
2247	2096.439941	0	28
2248	2087.459961	0	28
2249	2278.419922	0	28
2250	2342.199951	0	28
2251	2365.679932	0	28
2252	2256.760010	0	28
2253	2278.280029	0	28
2254	2300.060059	0	28
2255	2246.580078	0	28
2256	2309.540039	0	28
2257	2266.719971	0	28
2258	2296.760010	0	28
2259	2259.939941	0	28
2260	2203.560059	0	28
2261	2286.419922	0	28
2262	2312.520020	0	28
2263	2239.300049	0	28
2264	2292.280029	0	28
2265	2212.159912	0	28
2266	2307.840088	0	28
2267	2155.239990	0	28
2268	2311.560059	0	28
2269	2322.439941	0	28
2270	2287.620117	0	28
2271	2338.060059	0	28
2272	2314.100098	0	28
2273	2294.340088	0	28
2274	2326.840088	0	28
2275	2494.699951	0	28
2276	2250.300049	0	28
2277	2325.719971	0	28
2278	2276.020020	0	28
2279	2449.520020	0	28
2280	2289.459961	0	28
2281	2259.159912	0	28
2282	2309.760010	0	28
2283	2259.879883	0	28
2284	2036.479980	0	28
2285	2310.020020	0	28
2286	2337.439941	0	28
2287	2330.399902	0	28
2288	2019.660034	0	28
2289	2234.800049	0	28
2290	2254.360107	0	28
2291	2299.500000	0	28
2292	2245.260010	0	28
2293	2225.760010	0	28
2294	2281.300049	0	28
2295	2317.739990	0	28
2296	2285.280029	0	28
2297	2280.260010	0	28
2298	2320.820068	0	28
2299	2302.560059	0	28
2300	2203.939941	0	28
2301	2312.939941	0	28
2302	2176.639893	0	28
2303	2302.260010	0	28
2304	2265.560059	0	28
2305	2000.719971	0	28
2306	2191.260010	0	28
2307	2318.120117	0	28
2308	2298.600098	0	28
2309	2289.520020	0	28
2310	2342.459961	0	28
2311	2279.500000	0	28
2312	2256.300049	0	28
2313	2162.500000	0	28
2314	2294.100098	0	28
2315	2257.439941	0	28
2316	2299.520020	0	28
2317	2247.659912	0	28
2318	2343.520020	0	28
2319	2519.639893	0	28
2320	2350.060059	0	28
2321	2267.260010	0	28
2322	2287.219971	0	28
2323	2278.739990	0	28
2324	2297.399902	0	28
2325	2288.959961	0	28
2326	2295.280029	0	28
2327	2298.479980	0	28
2328	2297.739990	0	28
2329	2353.159912	0	28
2330	2289.780029	0	28
2331	2283.360107	0	28
2332	2532.000000	0	28
2333	2315.919922	0	28
2334	2298.419922	0	28
2335	1638.689941	0	28
2336	2285.800049	0	28
2337	2271.260010	0	28
2338	2262.560059	0	28
2339	2297.780029	0	28
2340	2266.419922	0	28
2341	2287.100098	0	28
2342	2221.260010	0	28
2343	2340.139893	0	28
2344	2302.580078	0	28
2345	2275.719971	0	28
2346	2323.560059	0	28
2347	2314.919922	0	28
2348	2244.500000	0	28
2349	2462.959961	0	28
2350	2306.439941	0	28
2351	2282.379883	0	28
2352	1672.969971	0	28
2353	2278.719971	0	28
2354	2309.199951	0	28
2355	2258.239990	0	28
2356	2541.139893	0	28
2357	2243.879883	0	28
2358	1797.260010	0	28
2359	2332.399902	0	28
2360	2380.639893	0	28
2361	2316.399902	0	28
2362	2274.939941	0	28
2363	1387.170044	0	28
2364	2328.659912	0	28
2365	2295.820068	0	28
2366	2258.580078	0	28
2367	2260.100098	0	28
2368	2229.620117	0	28
2369	2287.080078	0	28
2370	2271.840088	0	28
2371	2314.379883	0	28
2372	2190.340088	0	28
2373	2351.600098	0	28
2374	2281.919922	0	28
2375	2284.360107	0	28
2376	2280.000000	0	28
2377	2212.000000	0	28
2378	2261.320068	0	28
2379	1870.920044	0	28
2380	2286.179932	0	28
2381	2316.419922	0	28
2382	2114.379883	0	28
2383	2292.840088	0	28
2384	2174.620117	0	28
2385	2278.840088	0	28
2386	2296.360107	0	28
2387	2312.679932	0	28
2388	2259.320068	0	28
2389	2277.760010	0	28
2390	2260.439941	0	28
2391	2280.739990	0	28
2392	2238.820068	0	28
2393	2275.979980	0	28
2394	2006.099976	0	28
2395	1922.119995	0	28
2396	2304.840088	0	28
2397	2295.239990	0	28
2398	2264.780029	0	28
2399	2205.340088	0	28
2400	2272.919922	0	28
2401	2273.840088	0	28
2402	2028.800049	0	28
2403	2225.580078	0	28
2404	2269.540039	0	28
2405	2314.600098	0	28
2406	2244.979980	0	28
2407	2313.600098	0	28
2408	2291.879883	0	28
2409	2267.419922	0	28
2410	2300.439941	0	28
2411	2251.239990	0	28
2412	2204.840088	0	28
2413	2252.699951	0	28
2414	2222.840088	0	28
2415	2232.879883	0	28
2416	2134.100098	0	28
2417	2341.780029	0	28
2418	2141.699951	0	28
2419	2146.479980	0	28
2420	2239.020020	0	28
2421	2227.280029	0	28
2422	2227.820068	0	28
2423	2229.600098	0	28
2424	2247.500000	0	28
2425	2218.560059	0	28
2426	2280.159912	0	28
2427	2256.060059	0	28
2428	2367.899902	0	28
2429	2405.100098	0	28
2430	2247.620117	0	28
2431	2309.179932	0	28
2432	2284.639893	0	28
2433	2252.959961	0	28
2434	2241.739990	0	28
2435	2307.060059	0	28
2436	2300.620117	0	28
2437	2310.120117	0	28
2438	2233.459961	0	28
2439	2270.899902	0	28
2440	2275.040039	0	28
2441	2342.419922	0	28
2442	2304.939941	0	28
2443	2236.580078	0	28
2444	2323.659912	0	28
2445	2254.179932	0	28
2446	2241.639893	0	28
2447	2300.479980	0	28
2448	2282.219971	0	28
2449	2281.820068	0	28
2450	2293.000000	0	28
2451	2300.260010	0	28
2452	2271.300049	0	28
2453	2302.879883	0	28
2454	2249.100098	0	28
2455	2174.719971	0	28
2456	2269.479980	0	28
2457	2282.040039	0	28
2458	2267.000000	0	28
2459	2298.560059	0	28
2460	2241.280029	0	28
2461	2271.360107	0	28
2462	2327.860107	0	28
2463	2105.500000	0	28
2464	2197.979980	0	28
2465	1582.859985	0	28
2466	2307.840088	0	28
2467	2255.719971	0	28
2468	2057.820068	0	28
2469	2280.820068	0	28
2470	2257.120117	0	28
2471	2268.139893	0	28
2472	2292.340088	0	28
2473	2231.520020	0	28
2474	2231.219971	0	28
2475	2095.979980	0	28
2476	2231.199951	0	28
2477	2042.800049	0	28
2478	1900.849976	0	28
2479	1983.209961	0	28
2480	2263.419922	0	28
2481	2286.340088	0	28
2482	2327.959961	0	28
2483	2197.500000	0	28
2484	2243.459961	0	28
2485	2295.040039	0	28
2486	2289.639893	0	28
2487	2292.060059	0	28
2488	2243.360107	0	28
2489	1718.920044	0	28
2490	2237.000000	0	28
2491	1839.260010	0	28
2492	2270.939941	0	28
2493	2255.679932	0	28
2494	2234.580078	0	28
2495	2306.919922	0	28
2496	2290.060059	0	28
2497	1938.380005	0	28
2498	2176.399902	0	28
2499	2281.219971	0	28
2500	2272.260010	0	28
2501	2316.199951	0	28
2502	2229.320068	0	28
2503	2204.360107	0	28
2504	2271.899902	0	28
2505	2281.919922	0	28
2506	2167.760010	0	28
2507	2283.520020	0	28
2508	2249.600098	0	28
2509	2297.639893	0	28
2510	2219.500000	0	28
2511	1790.900024	0	28
2512	1874.229980	0	28
2513	2345.060059	0	28
2514	2250.320068	0	28
2515	2304.679932	0	28
2516	2240.000000	0	28
2517	2274.379883	0	28
2518	2265.320068	0	28
2519	2302.479980	0	28
2520	2219.100098	0	28
2521	2229.800049	0	28
2522	2235.540039	0	28
2523	2135.699951	0	28
2524	2267.360107	0	28
2525	2157.979980	0	28
2526	2229.500000	0	28
2527	2112.659912	0	28
2528	2284.239990	0	28
2529	2259.459961	0	28
2530	2290.719971	0	28
2531	2324.159912	0	28
2532	2539.879883	0	28
2533	2234.280029	0	28
2534	2223.219971	0	28
2535	2266.820068	0	28
2536	1897.619995	0	28
2537	2309.959961	0	28
2538	2267.080078	0	28
2539	2246.379883	0	28
2540	2293.879883	0	28
2541	2254.820068	0	28
2542	2312.479980	0	28
2543	2294.459961	0	28
2544	2238.139893	0	28
2545	2290.739990	0	28
2546	2281.580078	0	28
2547	2127.340088	0	28
2548	2286.000000	0	28
2549	2269.600098	0	28
2550	2298.040039	0	28
2551	2241.399902	0	28
2552	2253.399902	0	28
2553	2109.959961	0	28
2554	2264.459961	0	28
2555	2294.360107	0	28
2556	2257.419922	0	28
2557	2257.580078	0	28
2558	2277.699951	0	28
2559	2379.620117	0	28
2560	2216.419922	0	28
2561	2300.159912	0	28
2562	2263.439941	0	28
2563	2358.780029	0	28
2564	2290.780029	0	28
2565	2387.979980	0	28
2566	2230.520020	0	28
2567	2283.080078	0	28
2568	1940.959961	0	28
2569	2310.199951	0	28
2570	2308.120117	0	28
2571	2229.739990	0	28
2572	2246.520020	0	28
2573	2265.919922	0	28
2574	2309.939941	0	28
2575	2239.320068	0	28
2576	2299.719971	0	28
2577	2311.419922	0	28
2578	1809.430054	0	28
2579	1822.060059	0	28
2580	2281.639893	0	28
2581	2239.479980	0	28
2582	2305.139893	0	28
2583	2246.560059	0	28
2584	2277.379883	0	28
2585	2128.080078	0	28
2586	2316.100098	0	28
2587	2298.899902	0	28
2588	2209.020020	0	28
2589	2379.719971	0	28
2590	1766.410034	0	28
2591	2262.840088	0	28
2592	2310.600098	0	28
2593	2295.100098	0	28
2594	2323.439941	0	28
2595	2312.879883	0	28
2596	2041.099976	0	28
2597	2387.340088	0	28
2598	2235.800049	0	28
2599	2289.199951	0	28
2600	2331.679932	0	28
2601	2245.699951	0	28
2602	2202.919922	0	28
2603	1944.500000	0	28
2604	1756.040039	0	28
2605	2235.699951	0	28
2606	2307.879883	0	28
2607	2172.080078	0	28
2608	2099.840088	0	28
2609	2225.659912	0	28
2610	2202.800049	0	28
2611	2105.500000	0	28
2612	2301.840088	0	28
2613	2247.479980	0	28
2614	2276.520020	0	28
2615	2209.919922	0	28
2616	2281.399902	0	28
2617	2259.360107	0	28
2618	2243.080078	0	28
2619	2288.459961	0	28
2620	1823.989990	0	28
2621	2216.219971	0	28
2622	2353.179932	0	28
2623	2273.060059	0	28
2624	2223.219971	0	28
2625	2304.020020	0	28
2626	2073.959961	0	28
2627	2247.300049	0	28
2628	2288.699951	0	28
2629	1402.500000	0	28
2630	2377.179932	0	28
2631	2296.739990	0	28
2632	2246.879883	0	28
2633	2224.899902	0	28
2634	2252.959961	0	28
2635	1934.280029	0	28
2636	2244.560059	0	28
2637	2328.540039	0	28
2638	2269.340088	0	28
2639	2213.639893	0	28
2640	2137.340088	0	28
2641	2264.659912	0	28
2642	1540.449951	0	28
2643	2293.520020	0	28
2644	2290.560059	0	28
2645	2250.600098	0	28
2646	2378.000000	0	28
2647	2315.479980	0	28
2648	2311.739990	0	28
2649	2296.179932	0	28
2650	2292.040039	0	28
2651	2270.560059	0	28
2652	2255.739990	0	28
2653	2299.739990	0	28
2654	2190.080078	0	28
2655	2428.399902	0	28
2656	1498.050049	0	28
2657	2204.659912	0	28
2658	1667.959961	0	28
2659	2254.979980	0	28
2660	2323.939941	0	28
2661	2306.760010	0	28
2662	2303.560059	0	28
2663	2246.040039	0	28
2664	2280.860107	0	28
2665	1718.839966	0	28
2666	1623.709961	0	28
2667	2303.020020	0	28
2668	2064.639893	0	28
2669	1642.979980	0	28
2670	2170.540039	0	28
2671	2232.219971	0	28
2672	2271.719971	0	28
2673	2242.219971	0	28
2674	2110.560059	0	28
2675	1832.609985	0	28
2676	2241.280029	0	28
2677	2231.300049	0	28
2678	2296.560059	0	28
2679	1943.709961	0	28
2680	1829.880005	0	28
2681	2205.919922	0	28
2682	2290.360107	0	28
2683	2193.919922	0	28
2684	2089.959961	0	28
2685	2293.840088	0	28
2686	2287.300049	0	28
2687	2233.639893	0	28
2688	1242.619995	0	28
2689	2627.379883	0	28
2690	2284.479980	0	28
2691	2268.560059	0	28
2692	2018.260010	0	28
2693	2295.959961	0	28
2694	2248.560059	0	28
2695	2417.139893	0	28
2696	2301.219971	0	28
2697	2257.580078	0	28
2698	1739.439941	0	28
2699	1830.560059	0	28
2700	2243.939941	0	28
2701	2304.219971	0	28
2702	1827.819946	0	28
2703	2327.040039	0	28
2704	2314.340088	0	28
2705	2282.939941	0	28
2706	2270.899902	0	28
2707	2221.020020	0	28
2708	1828.890015	0	28
2709	2267.560059	0	28
2710	1692.550049	0	28
2711	2265.479980	0	28
2712	2224.260010	0	28
2713	1914.949951	0	28
2714	1834.109985	0	28
2715	1784.530029	0	28